{
    "userAgent": "Mozilla/5.0 (Windows NT 10.0; Win64; x64) AppleWebKit/537.36 (KHTML, like Gecko) Chrome/80.0.3987.132 Safari/537.36",
    "environment": {
      "networkUserAgent": "Mozilla/5.0 (Macintosh; Intel Mac OS X 10_13_6) AppleWebKit/537.36 (KHTML, like Gecko) Chrome/74.0.3694.0 Safari/537.36 Chrome-Lighthouse",
      "hostUserAgent": "Mozilla/5.0 (Windows NT 10.0; Win64; x64) AppleWebKit/537.36 (KHTML, like Gecko) Chrome/80.0.3987.132 Safari/537.36",
      "benchmarkIndex": 1570
    },
    "lighthouseVersion": "5.7.0",
    "fetchTime": "2020-03-17T18:25:23.595Z",
    "requestedUrl": "https://neurosurgery.duke.edu/",
    "finalUrl": "https://neurosurgery.duke.edu/",
    "runWarnings": [],
    "audits": {
      "accesskeys": {
        "id": "accesskeys",
        "title": "`[accesskey]` values are unique",
        "description": "Access keys let users quickly focus a part of the page. For proper navigation, each access key must be unique. [Learn more](https://web.dev/accesskeys/).",
        "score": null,
        "scoreDisplayMode": "notApplicable"
      },
      "aria-allowed-attr": {
        "id": "aria-allowed-attr",
        "title": "`[aria-*]` attributes match their roles",
        "description": "Each ARIA `role` supports a specific subset of `aria-*` attributes. Mismatching these invalidates the `aria-*` attributes. [Learn more](https://web.dev/aria-allowed-attr/).",
        "score": null,
        "scoreDisplayMode": "notApplicable"
      },
      "aria-required-attr": {
        "id": "aria-required-attr",
        "title": "`[role]`s have all required `[aria-*]` attributes",
        "description": "Some ARIA roles have required attributes that describe the state of the element to screen readers. [Learn more](https://web.dev/aria-required-attr/).",
        "score": 1,
        "scoreDisplayMode": "binary",
        "details": {
          "type": "table",
          "headings": [],
          "items": []
        }
      },
      "aria-required-children": {
        "id": "aria-required-children",
        "title": "Elements with an ARIA `[role]` that require children to contain a specific `[role]` have all required children.",
        "description": "Some ARIA parent roles must contain specific child roles to perform their intended accessibility functions. [Learn more](https://web.dev/aria-required-children/).",
        "score": 1,
        "scoreDisplayMode": "binary",
        "details": {
          "type": "table",
          "headings": [],
          "items": []
        }
      },
      "aria-required-parent": {
        "id": "aria-required-parent",
        "title": "`[role]`s are contained by their required parent element",
        "description": "Some ARIA child roles must be contained by specific parent roles to properly perform their intended accessibility functions. [Learn more](https://web.dev/aria-required-parent/).",
        "score": 1,
        "scoreDisplayMode": "binary",
        "details": {
          "type": "table",
          "headings": [],
          "items": []
        }
      },
      "aria-roles": {
        "id": "aria-roles",
        "title": "`[role]` values are valid",
        "description": "ARIA roles must have valid values in order to perform their intended accessibility functions. [Learn more](https://web.dev/aria-roles/).",
        "score": 1,
        "scoreDisplayMode": "binary",
        "details": {
          "type": "table",
          "headings": [],
          "items": []
        }
      },
      "aria-valid-attr-value": {
        "id": "aria-valid-attr-value",
        "title": "`[aria-*]` attributes have valid values",
        "description": "Assistive technologies, like screen readers, can't interpret ARIA attributes with invalid values. [Learn more](https://web.dev/aria-valid-attr-value/).",
        "score": null,
        "scoreDisplayMode": "notApplicable"
      },
      "aria-valid-attr": {
        "id": "aria-valid-attr",
        "title": "`[aria-*]` attributes are valid and not misspelled",
        "description": "Assistive technologies, like screen readers, can't interpret ARIA attributes with invalid names. [Learn more](https://web.dev/aria-valid-attr/).",
        "score": null,
        "scoreDisplayMode": "notApplicable"
      },
      "audio-caption": {
        "id": "audio-caption",
        "title": "`<audio>` elements contain a `<track>` element with `[kind=\"captions\"]`",
        "description": "Captions make audio elements usable for deaf or hearing-impaired users, providing critical information such as who is talking, what they're saying, and other non-speech information. [Learn more](https://web.dev/audio-caption/).",
        "score": null,
        "scoreDisplayMode": "notApplicable"
      },
      "button-name": {
        "id": "button-name",
        "title": "Buttons have an accessible name",
        "description": "When a button doesn't have an accessible name, screen readers announce it as \"button\", making it unusable for users who rely on screen readers. [Learn more](https://web.dev/button-name/).",
        "score": null,
        "scoreDisplayMode": "notApplicable"
      },
      "bypass": {
        "id": "bypass",
        "title": "The page contains a heading, skip link, or landmark region",
        "description": "Adding ways to bypass repetitive content lets keyboard users navigate the page more efficiently. [Learn more](https://web.dev/bypass/).",
        "score": 1,
        "scoreDisplayMode": "binary",
        "details": {
          "type": "table",
          "headings": [],
          "items": []
        }
      },
      "color-contrast": {
        "id": "color-contrast",
        "title": "Background and foreground colors do not have a sufficient contrast ratio.",
        "description": "Low-contrast text is difficult or impossible for many users to read. [Learn more](https://web.dev/color-contrast/).",
        "score": 0,
        "scoreDisplayMode": "binary",
        "details": {
          "type": "table",
          "headings": [
            {
              "key": "node",
              "itemType": "node",
              "text": "Failing Elements"
            }
          ],
          "items": [
            {
              "node": {
                "type": "node",
                "selector": "li:nth-child(2) > a[href$=\"contact-us\"]",
                "path": "1,HTML,1,BODY,1,HEADER,0,DIV,0,DIV,0,DIV,0,SECTION,1,UL,1,LI,0,A",
                "snippet": "<a href=\"/contact-us\">Contact Us</a>",
                "explanation": "Fix any of the following:\n  Element has insufficient color contrast of 4.17 (foreground color: #ffffff, background color: #d94b3d, font size: 10.5pt, font weight: normal). Expected contrast ratio of 4.5:1",
                "nodeLabel": "Contact Us"
              }
            },
            {
              "node": {
                "type": "node",
                "selector": ".box-green > p:nth-child(1)",
                "path": "1,HTML,1,BODY,4,DIV,0,DIV,0,DIV,0,DIV,0,SECTION,0,DIV,0,P",
                "snippet": "<p>HIGHLIGHT</p>",
                "explanation": "Fix any of the following:\n  Element has insufficient color contrast of 3.4 (foreground color: #ffffff, background color: #809421, font size: 10.5pt, font weight: normal). Expected contrast ratio of 4.5:1",
                "nodeLabel": "HIGHLIGHT"
              }
            },
            {
              "node": {
                "type": "node",
                "selector": ".box-green > .big:nth-child(3)",
                "path": "1,HTML,1,BODY,4,DIV,0,DIV,0,DIV,0,DIV,0,SECTION,0,DIV,2,P",
                "snippet": "<p class=\"big\">Duke Spine Center</p>",
                "explanation": "Fix any of the following:\n  Element has insufficient color contrast of 3.4 (foreground color: #ffffff, background color: #809421, font size: 15.8pt, font weight: normal). Expected contrast ratio of 4.5:1",
                "nodeLabel": "Duke Spine Center"
              }
            },
            {
              "node": {
                "type": "node",
                "selector": ".box-green > p:nth-child(4) > .btn[target=\"_blank\"]",
                "path": "1,HTML,1,BODY,4,DIV,0,DIV,0,DIV,0,DIV,0,SECTION,0,DIV,3,P,0,A",
                "snippet": "<a class=\"btn\" href=\"https://www.dukehealth.org/locations/duke-spine-center\" target=\"_blank\">Learn More</a>",
                "explanation": "Fix any of the following:\n  Element has insufficient color contrast of 3.4 (foreground color: #ffffff, background color: #809421, font size: 10.5pt, font weight: normal). Expected contrast ratio of 4.5:1",
                "nodeLabel": "Learn More"
              }
            },
            {
              "node": {
                "type": "node",
                "selector": ".green > p",
                "path": "1,HTML,1,BODY,4,DIV,0,DIV,0,DIV,0,DIV,1,SECTION,1,DIV,1,DIV,0,P",
                "snippet": "<p><span class=\"number\">3</span>Rank Based on<br>\nFunding by NIH</p>",
                "explanation": "Fix any of the following:\n  Element has insufficient color contrast of 2.85 (foreground color: #809421, background color: #ebebeb, font size: 12.6pt, font weight: normal). Expected contrast ratio of 4.5:1",
                "nodeLabel": "3\nRank Based on\nFunding by NIH"
              }
            },
            {
              "node": {
                "type": "node",
                "selector": ".red > p",
                "path": "1,HTML,1,BODY,4,DIV,0,DIV,0,DIV,0,DIV,1,SECTION,1,DIV,2,DIV,0,P",
                "snippet": "<p><span class=\"number\">24</span>Percent of Residents<br>\nWho Are Women</p>",
                "explanation": "Fix any of the following:\n  Element has insufficient color contrast of 3.5 (foreground color: #d94b3d, background color: #ebebeb, font size: 12.6pt, font weight: normal). Expected contrast ratio of 4.5:1",
                "nodeLabel": "24\nPercent of Residents\nWho Are Women"
              }
            }
          ],
          "debugData": {
            "type": "debugdata",
            "impact": "serious",
            "tags": [
              "cat.color",
              "wcag2aa",
              "wcag143"
            ]
          }
        }
      },
      "definition-list": {
        "id": "definition-list",
        "title": "`<dl>`'s contain only properly-ordered `<dt>` and `<dd>` groups, `<script>` or `<template>` elements.",
        "description": "When definition lists are not properly marked up, screen readers may produce confusing or inaccurate output. [Learn more](https://web.dev/definition-list/).",
        "score": null,
        "scoreDisplayMode": "notApplicable"
      },
      "dlitem": {
        "id": "dlitem",
        "title": "Definition list items are wrapped in `<dl>` elements",
        "description": "Definition list items (`<dt>` and `<dd>`) must be wrapped in a parent `<dl>` element to ensure that screen readers can properly announce them. [Learn more](https://web.dev/dlitem/).",
        "score": null,
        "scoreDisplayMode": "notApplicable"
      },
      "document-title": {
        "id": "document-title",
        "title": "Document has a `<title>` element",
        "description": "The title gives screen reader users an overview of the page, and search engine users rely on it heavily to determine if a page is relevant to their search. [Learn more](https://web.dev/document-title/).",
        "score": 1,
        "scoreDisplayMode": "binary",
        "details": {
          "type": "table",
          "headings": [],
          "items": []
        }
      },
      "duplicate-id": {
        "id": "duplicate-id",
        "title": "`[id]` attributes on the page are unique",
        "description": "The value of an id attribute must be unique to prevent other instances from being overlooked by assistive technologies. [Learn more](https://web.dev/duplicate-id/).",
        "score": 1,
        "scoreDisplayMode": "binary",
        "details": {
          "type": "table",
          "headings": [],
          "items": []
        }
      },
      "frame-title": {
        "id": "frame-title",
        "title": "`<frame>` or `<iframe>` elements have a title",
        "description": "Screen reader users rely on frame titles to describe the contents of frames. [Learn more](https://web.dev/frame-title/).",
        "score": 1,
        "scoreDisplayMode": "binary",
        "details": {
          "type": "table",
          "headings": [],
          "items": []
        }
      },
      "html-has-lang": {
        "id": "html-has-lang",
        "title": "`<html>` element has a `[lang]` attribute",
        "description": "If a page doesn't specify a lang attribute, a screen reader assumes that the page is in the default language that the user chose when setting up the screen reader. If the page isn't actually in the default language, then the screen reader might not announce the page's text correctly. [Learn more](https://web.dev/html-has-lang/).",
        "score": 1,
        "scoreDisplayMode": "binary",
        "details": {
          "type": "table",
          "headings": [],
          "items": []
        }
      },
      "html-lang-valid": {
        "id": "html-lang-valid",
        "title": "`<html>` element has a valid value for its `[lang]` attribute",
        "description": "Specifying a valid [BCP 47 language](https://www.w3.org/International/questions/qa-choosing-language-tags#question) helps screen readers announce text properly. [Learn more](https://web.dev/html-lang-valid/).",
        "score": 1,
        "scoreDisplayMode": "binary",
        "details": {
          "type": "table",
          "headings": [],
          "items": []
        }
      },
      "image-alt": {
        "id": "image-alt",
        "title": "Image elements have `[alt]` attributes",
        "description": "Informative elements should aim for short, descriptive alternate text. Decorative elements can be ignored with an empty alt attribute. [Learn more](https://web.dev/image-alt/).",
        "score": 1,
        "scoreDisplayMode": "binary",
        "details": {
          "type": "table",
          "headings": [],
          "items": []
        }
      },
      "input-image-alt": {
        "id": "input-image-alt",
        "title": "`<input type=\"image\">` elements have `[alt]` text",
        "description": "When an image is being used as an `<input>` button, providing alternative text can help screen reader users understand the purpose of the button. [Learn more](https://web.dev/input-image-alt/).",
        "score": null,
        "scoreDisplayMode": "notApplicable"
      },
      "label": {
        "id": "label",
        "title": "Form elements have associated labels",
        "description": "Labels ensure that form controls are announced properly by assistive technologies, like screen readers. [Learn more](https://web.dev/label/).",
        "score": null,
        "scoreDisplayMode": "notApplicable"
      },
      "layout-table": {
        "id": "layout-table",
        "title": "Presentational `<table>` elements avoid using `<th>`, `<caption>` or the `[summary]` attribute.",
        "description": "A table being used for layout purposes should not include data elements, such as the th or caption elements or the summary attribute, because this can create a confusing experience for screen reader users. [Learn more](https://web.dev/layout-table/).",
        "score": null,
        "scoreDisplayMode": "notApplicable"
      },
      "link-name": {
        "id": "link-name",
        "title": "Links do not have a discernible name",
        "description": "Link text (and alternate text for images, when used as links) that is discernible, unique, and focusable improves the navigation experience for screen reader users. [Learn more](https://web.dev/link-name/).",
        "score": 0,
        "scoreDisplayMode": "binary",
        "details": {
          "type": "table",
          "headings": [
            {
              "key": "node",
              "itemType": "node",
              "text": "Failing Elements"
            }
          ],
          "items": [
            {
              "node": {
                "type": "node",
                "selector": "li:nth-child(1) > a[target=\"_blank\"]",
                "path": "1,HTML,1,BODY,1,HEADER,0,DIV,0,DIV,0,DIV,0,SECTION,0,UL,0,LI,0,A",
                "snippet": "<a href=\"https://twitter.com/dukeneurosurg\" target=\"_blank\"><i aria-hidden=\"true\" class=\"fa fa-twitter fa-2x\">&nbsp;</i></a>",
                "explanation": "Fix all of the following:\n  Element is in tab order and does not have accessible text\n\nFix any of the following:\n  Element does not have text that is visible to screen readers\n  aria-label attribute does not exist or is empty\n  aria-labelledby attribute does not exist, references elements that do not exist or references elements that are empty\n  Element's default semantics were not overridden with role=\"presentation\"\n  Element's default semantics were not overridden with role=\"none\"",
                "nodeLabel": " "
              }
            },
            {
              "node": {
                "type": "node",
                "selector": "li:nth-child(2) > a[target=\"_blank\"]",
                "path": "1,HTML,1,BODY,1,HEADER,0,DIV,0,DIV,0,DIV,0,SECTION,0,UL,1,LI,0,A",
                "snippet": "<a href=\"https://www.facebook.com/dukeneurosurgery\" target=\"_blank\"><i aria-hidden=\"true\" class=\"fa fa-facebook-official fa-2x\">&nbsp;</i></a>",
                "explanation": "Fix all of the following:\n  Element is in tab order and does not have accessible text\n\nFix any of the following:\n  Element does not have text that is visible to screen readers\n  aria-label attribute does not exist or is empty\n  aria-labelledby attribute does not exist, references elements that do not exist or references elements that are empty\n  Element's default semantics were not overridden with role=\"presentation\"\n  Element's default semantics were not overridden with role=\"none\"",
                "nodeLabel": " "
              }
            },
            {
              "node": {
                "type": "node",
                "selector": ".top-links > li:nth-child(1) > a[href$=\"search\"]",
                "path": "1,HTML,1,BODY,1,HEADER,0,DIV,0,DIV,0,DIV,0,SECTION,1,UL,0,LI,0,A",
                "snippet": "<a href=\"/search\"><i aria-hidden=\"true\" class=\"fa fa-search\">&nbsp;</i></a>",
                "explanation": "Fix all of the following:\n  Element is in tab order and does not have accessible text\n\nFix any of the following:\n  Element does not have text that is visible to screen readers\n  aria-label attribute does not exist or is empty\n  aria-labelledby attribute does not exist, references elements that do not exist or references elements that are empty\n  Element's default semantics were not overridden with role=\"presentation\"\n  Element's default semantics were not overridden with role=\"none\"",
                "nodeLabel": " "
              }
            }
          ],
          "debugData": {
            "type": "debugdata",
            "impact": "serious",
            "tags": [
              "cat.name-role-value",
              "wcag2a",
              "wcag412",
              "wcag244",
              "section508",
              "section508.22.a"
            ]
          }
        }
      },
      "list": {
        "id": "list",
        "title": "Lists contain only `<li>` elements and script supporting elements (`<script>` and `<template>`).",
        "description": "Screen readers have a specific way of announcing lists. Ensuring proper list structure aids screen reader output. [Learn more](https://web.dev/list/).",
        "score": 1,
        "scoreDisplayMode": "binary",
        "details": {
          "type": "table",
          "headings": [],
          "items": []
        }
      },
      "listitem": {
        "id": "listitem",
        "title": "List items (`<li>`) are contained within `<ul>` or `<ol>` parent elements",
        "description": "Screen readers require list items (`<li>`) to be contained within a parent `<ul>` or `<ol>` to be announced properly. [Learn more](https://web.dev/listitem/).",
        "score": 1,
        "scoreDisplayMode": "binary",
        "details": {
          "type": "table",
          "headings": [],
          "items": []
        }
      },
      "meta-refresh": {
        "id": "meta-refresh",
        "title": "The document does not use `<meta http-equiv=\"refresh\">`",
        "description": "Users do not expect a page to refresh automatically, and doing so will move focus back to the top of the page. This may create a frustrating or confusing experience. [Learn more](https://web.dev/meta-refresh/).",
        "score": null,
        "scoreDisplayMode": "notApplicable"
      },
      "meta-viewport": {
        "id": "meta-viewport",
        "title": "`[user-scalable=\"no\"]` is not used in the `<meta name=\"viewport\">` element and the `[maximum-scale]` attribute is not less than 5.",
        "description": "Disabling zooming is problematic for users with low vision who rely on screen magnification to properly see the contents of a web page. [Learn more](https://web.dev/meta-viewport/).",
        "score": 1,
        "scoreDisplayMode": "binary",
        "details": {
          "type": "table",
          "headings": [],
          "items": []
        }
      },
      "object-alt": {
        "id": "object-alt",
        "title": "`<object>` elements have `[alt]` text",
        "description": "Screen readers cannot translate non-text content. Adding alt text to `<object>` elements helps screen readers convey meaning to users. [Learn more](https://web.dev/object-alt/).",
        "score": null,
        "scoreDisplayMode": "notApplicable"
      },
      "tabindex": {
        "id": "tabindex",
        "title": "No element has a `[tabindex]` value greater than 0",
        "description": "A value greater than 0 implies an explicit navigation ordering. Although technically valid, this often creates frustrating experiences for users who rely on assistive technologies. [Learn more](https://web.dev/tabindex/).",
        "score": null,
        "scoreDisplayMode": "notApplicable"
      },
      "td-headers-attr": {
        "id": "td-headers-attr",
        "title": "Cells in a `<table>` element that use the `[headers]` attribute refer to table cells within the same table.",
        "description": "Screen readers have features to make navigating tables easier. Ensuring `<td>` cells using the `[headers]` attribute only refer to other cells in the same table may improve the experience for screen reader users. [Learn more](https://web.dev/td-headers-attr/).",
        "score": null,
        "scoreDisplayMode": "notApplicable"
      },
      "th-has-data-cells": {
        "id": "th-has-data-cells",
        "title": "`<th>` elements and elements with `[role=\"columnheader\"/\"rowheader\"]` have data cells they describe.",
        "description": "Screen readers have features to make navigating tables easier. Ensuring table headers always refer to some set of cells may improve the experience for screen reader users. [Learn more](https://web.dev/th-has-data-cells/).",
        "score": null,
        "scoreDisplayMode": "notApplicable"
      },
      "valid-lang": {
        "id": "valid-lang",
        "title": "`[lang]` attributes have a valid value",
        "description": "Specifying a valid [BCP 47 language](https://www.w3.org/International/questions/qa-choosing-language-tags#question) on elements helps ensure that text is pronounced correctly by a screen reader. [Learn more](https://web.dev/valid-lang/).",
        "score": null,
        "scoreDisplayMode": "notApplicable"
      },
      "video-caption": {
        "id": "video-caption",
        "title": "`<video>` elements contain a `<track>` element with `[kind=\"captions\"]`",
        "description": "When a video provides a caption it is easier for deaf and hearing impaired users to access its information. [Learn more](https://web.dev/video-caption/).",
        "score": null,
        "scoreDisplayMode": "notApplicable"
      },
      "video-description": {
        "id": "video-description",
        "title": "`<video>` elements contain a `<track>` element with `[kind=\"description\"]`",
        "description": "Audio descriptions provide relevant information for videos that dialogue cannot, such as facial expressions and scenes. [Learn more](https://web.dev/video-description/).",
        "score": null,
        "scoreDisplayMode": "notApplicable"
      },
      "custom-controls-labels": {
        "id": "custom-controls-labels",
        "title": "Custom controls have associated labels",
        "description": "Custom interactive controls have associated labels, provided by aria-label or aria-labelledby. [Learn more](https://web.dev/custom-controls-labels/).",
        "score": null,
        "scoreDisplayMode": "manual"
      },
      "custom-controls-roles": {
        "id": "custom-controls-roles",
        "title": "Custom controls have ARIA roles",
        "description": "Custom interactive controls have appropriate ARIA roles. [Learn more](https://web.dev/custom-control-roles/).",
        "score": null,
        "scoreDisplayMode": "manual"
      },
      "focus-traps": {
        "id": "focus-traps",
        "title": "User focus is not accidentally trapped in a region",
        "description": "A user can tab into and out of any control or region without accidentally trapping their focus. [Learn more](https://web.dev/focus-traps/).",
        "score": null,
        "scoreDisplayMode": "manual"
      },
      "focusable-controls": {
        "id": "focusable-controls",
        "title": "Interactive controls are keyboard focusable",
        "description": "Custom interactive controls are keyboard focusable and display a focus indicator. [Learn more](https://web.dev/focusable-controls/).",
        "score": null,
        "scoreDisplayMode": "manual"
      },
      "heading-levels": {
        "id": "heading-levels",
        "title": "Headings don't skip levels",
        "description": "Headings are used to create an outline for the page and heading levels are not skipped. [Learn more](https://web.dev/heading-levels/).",
        "score": null,
        "scoreDisplayMode": "manual"
      },
      "interactive-element-affordance": {
        "id": "interactive-element-affordance",
        "title": "Interactive elements indicate their purpose and state",
        "description": "Interactive elements, such as links and buttons, should indicate their state and be distinguishable from non-interactive elements. [Learn more](https://web.dev/interactive-element-affordance/).",
        "score": null,
        "scoreDisplayMode": "manual"
      },
      "logical-tab-order": {
        "id": "logical-tab-order",
        "title": "The page has a logical tab order",
        "description": "Tabbing through the page follows the visual layout. Users cannot focus elements that are offscreen. [Learn more](https://web.dev/logical-tab-order/).",
        "score": null,
        "scoreDisplayMode": "manual"
      },
      "managed-focus": {
        "id": "managed-focus",
        "title": "The user's focus is directed to new content added to the page",
        "description": "If new content, such as a dialog, is added to the page, the user's focus is directed to it. [Learn more](https://web.dev/managed-focus/).",
        "score": null,
        "scoreDisplayMode": "manual"
      },
      "offscreen-content-hidden": {
        "id": "offscreen-content-hidden",
        "title": "Offscreen content is hidden from assistive technology",
        "description": "Offscreen content is hidden with display: none or aria-hidden=true. [Learn more](https://web.dev/offscreen-content-hidden/).",
        "score": null,
        "scoreDisplayMode": "manual"
      },
      "use-landmarks": {
        "id": "use-landmarks",
        "title": "HTML5 landmark elements are used to improve navigation",
        "description": "Landmark elements (<main>, <nav>, etc.) are used to improve the keyboard navigation of the page for assistive technology. [Learn more](https://web.dev/use-landmarks/).",
        "score": null,
        "scoreDisplayMode": "manual"
      },
      "visual-order-follows-dom": {
        "id": "visual-order-follows-dom",
        "title": "Visual order on the page follows DOM order",
        "description": "DOM order matches the visual order, improving navigation for assistive technology. [Learn more](https://web.dev/visual-order-follows-dom/).",
        "score": null,
        "scoreDisplayMode": "manual"
      }
    },
    "configSettings": {
      "output": "json",
      "maxWaitForFcp": 30000,
      "maxWaitForLoad": 45000,
      "throttlingMethod": "simulate",
      "throttling": {
        "rttMs": 150,
        "throughputKbps": 1638.4,
        "requestLatencyMs": 562.5,
        "downloadThroughputKbps": 1474.5600000000002,
        "uploadThroughputKbps": 675,
        "cpuSlowdownMultiplier": 4
      },
      "auditMode": false,
      "gatherMode": false,
      "disableStorageReset": false,
      "emulatedFormFactor": "desktop",
      "internalDisableDeviceScreenEmulation": true,
      "channel": "devtools",
      "budgets": null,
      "locale": "en-US",
      "blockedUrlPatterns": null,
      "additionalTraceCategories": null,
      "extraHeaders": null,
      "precomputedLanternData": null,
      "onlyAudits": null,
      "onlyCategories": [
        "accessibility"
      ],
      "skipAudits": null
    },
    "categories": {
      "accessibility": {
        "title": "Accessibility",
        "description": "These checks highlight opportunities to [improve the accessibility of your web app](https://developers.google.com/web/fundamentals/accessibility). Only a subset of accessibility issues can be automatically detected so manual testing is also encouraged.",
        "manualDescription": "These items address areas which an automated testing tool cannot cover. Learn more in our guide on [conducting an accessibility review](https://developers.google.com/web/fundamentals/accessibility/how-to-review).",
        "auditRefs": [
          {
            "id": "accesskeys",
            "weight": 0,
            "group": "a11y-navigation"
          },
          {
            "id": "aria-allowed-attr",
            "weight": 0,
            "group": "a11y-aria"
          },
          {
            "id": "aria-required-attr",
            "weight": 10,
            "group": "a11y-aria"
          },
          {
            "id": "aria-required-children",
            "weight": 10,
            "group": "a11y-aria"
          },
          {
            "id": "aria-required-parent",
            "weight": 10,
            "group": "a11y-aria"
          },
          {
            "id": "aria-roles",
            "weight": 10,
            "group": "a11y-aria"
          },
          {
            "id": "aria-valid-attr-value",
            "weight": 0,
            "group": "a11y-aria"
          },
          {
            "id": "aria-valid-attr",
            "weight": 0,
            "group": "a11y-aria"
          },
          {
            "id": "audio-caption",
            "weight": 0,
            "group": "a11y-audio-video"
          },
          {
            "id": "button-name",
            "weight": 0,
            "group": "a11y-names-labels"
          },
          {
            "id": "bypass",
            "weight": 3,
            "group": "a11y-navigation"
          },
          {
            "id": "color-contrast",
            "weight": 3,
            "group": "a11y-color-contrast"
          },
          {
            "id": "definition-list",
            "weight": 0,
            "group": "a11y-tables-lists"
          },
          {
            "id": "dlitem",
            "weight": 0,
            "group": "a11y-tables-lists"
          },
          {
            "id": "document-title",
            "weight": 3,
            "group": "a11y-names-labels"
          },
          {
            "id": "duplicate-id",
            "weight": 1,
            "group": "a11y-best-practices"
          },
          {
            "id": "frame-title",
            "weight": 3,
            "group": "a11y-names-labels"
          },
          {
            "id": "html-has-lang",
            "weight": 3,
            "group": "a11y-language"
          },
          {
            "id": "html-lang-valid",
            "weight": 3,
            "group": "a11y-language"
          },
          {
            "id": "image-alt",
            "weight": 10,
            "group": "a11y-names-labels"
          },
          {
            "id": "input-image-alt",
            "weight": 0,
            "group": "a11y-names-labels"
          },
          {
            "id": "label",
            "weight": 0,
            "group": "a11y-names-labels"
          },
          {
            "id": "layout-table",
            "weight": 0,
            "group": "a11y-tables-lists"
          },
          {
            "id": "link-name",
            "weight": 3,
            "group": "a11y-names-labels"
          },
          {
            "id": "list",
            "weight": 3,
            "group": "a11y-tables-lists"
          },
          {
            "id": "listitem",
            "weight": 3,
            "group": "a11y-tables-lists"
          },
          {
            "id": "meta-refresh",
            "weight": 0,
            "group": "a11y-best-practices"
          },
          {
            "id": "meta-viewport",
            "weight": 10,
            "group": "a11y-best-practices"
          },
          {
            "id": "object-alt",
            "weight": 0,
            "group": "a11y-names-labels"
          },
          {
            "id": "tabindex",
            "weight": 0,
            "group": "a11y-navigation"
          },
          {
            "id": "td-headers-attr",
            "weight": 0,
            "group": "a11y-tables-lists"
          },
          {
            "id": "th-has-data-cells",
            "weight": 0,
            "group": "a11y-tables-lists"
          },
          {
            "id": "valid-lang",
            "weight": 0,
            "group": "a11y-language"
          },
          {
            "id": "video-caption",
            "weight": 0,
            "group": "a11y-audio-video"
          },
          {
            "id": "video-description",
            "weight": 0,
            "group": "a11y-audio-video"
          },
          {
            "id": "logical-tab-order",
            "weight": 0
          },
          {
            "id": "focusable-controls",
            "weight": 0
          },
          {
            "id": "interactive-element-affordance",
            "weight": 0
          },
          {
            "id": "managed-focus",
            "weight": 0
          },
          {
            "id": "focus-traps",
            "weight": 0
          },
          {
            "id": "custom-controls-labels",
            "weight": 0
          },
          {
            "id": "custom-controls-roles",
            "weight": 0
          },
          {
            "id": "visual-order-follows-dom",
            "weight": 0
          },
          {
            "id": "offscreen-content-hidden",
            "weight": 0
          },
          {
            "id": "heading-levels",
            "weight": 0
          },
          {
            "id": "use-landmarks",
            "weight": 0
          }
        ],
        "id": "accessibility",
        "score": 0.93
      }
    },
    "categoryGroups": {
      "metrics": {
        "title": "Metrics"
      },
      "load-opportunities": {
        "title": "Opportunities",
        "description": "These suggestions can help your page load faster. They don't [directly affect](https://github.com/GoogleChrome/lighthouse/blob/d2ec9ffbb21de9ad1a0f86ed24575eda32c796f0/docs/scoring.md#how-are-the-scores-weighted) the Performance score."
      },
      "budgets": {
        "title": "Budgets",
        "description": "Performance budgets set standards for the performance of your site."
      },
      "diagnostics": {
        "title": "Diagnostics",
        "description": "More information about the performance of your application. These numbers don't [directly affect](https://github.com/GoogleChrome/lighthouse/blob/d2ec9ffbb21de9ad1a0f86ed24575eda32c796f0/docs/scoring.md#how-are-the-scores-weighted) the Performance score."
      },
      "pwa-fast-reliable": {
        "title": "Fast and reliable"
      },
      "pwa-installable": {
        "title": "Installable"
      },
      "pwa-optimized": {
        "title": "PWA Optimized"
      },
      "a11y-best-practices": {
        "title": "Best practices",
        "description": "These items highlight common accessibility best practices."
      },
      "a11y-color-contrast": {
        "title": "Contrast",
        "description": "These are opportunities to improve the legibility of your content."
      },
      "a11y-names-labels": {
        "title": "Names and labels",
        "description": "These are opportunities to improve the semantics of the controls in your application. This may enhance the experience for users of assistive technology, like a screen reader."
      },
      "a11y-navigation": {
        "title": "Navigation",
        "description": "These are opportunities to improve keyboard navigation in your application."
      },
      "a11y-aria": {
        "title": "ARIA",
        "description": "These are opportunities to improve the usage of ARIA in your application which may enhance the experience for users of assistive technology, like a screen reader."
      },
      "a11y-language": {
        "title": "Internationalization and localization",
        "description": "These are opportunities to improve the interpretation of your content by users in different locales."
      },
      "a11y-audio-video": {
        "title": "Audio and video",
        "description": "These are opportunities to provide alternative content for audio and video. This may improve the experience for users with hearing or vision impairments."
      },
      "a11y-tables-lists": {
        "title": "Tables and lists",
        "description": "These are opportunities to to improve the experience of reading tabular or list data using assistive technology, like a screen reader."
      },
      "seo-mobile": {
        "title": "Mobile Friendly",
        "description": "Make sure your pages are mobile friendly so users don’t have to pinch or zoom in order to read the content pages. [Learn more](https://developers.google.com/search/mobile-sites/)."
      },
      "seo-content": {
        "title": "Content Best Practices",
        "description": "Format your HTML in a way that enables crawlers to better understand your app’s content."
      },
      "seo-crawl": {
        "title": "Crawling and Indexing",
        "description": "To appear in search results, crawlers need access to your app."
      },
      "lighthouse-plugin-publisher-ads-metrics": {
        "title": "Metrics"
      },
      "lighthouse-plugin-publisher-ads-ads-performance": {
        "title": "Ad Speed"
      },
      "lighthouse-plugin-publisher-ads-ads-best-practices": {
        "title": "Tag Best Practices"
      }
    },
    "timing": {
      "entries": [
        {
          "startTime": 57.15,
          "name": "lh:init:config",
          "duration": 65.56,
          "entryType": "measure"
        },
        {
          "startTime": 62.91,
          "name": "lh:config:requireGatherers",
          "duration": 6.11,
          "entryType": "measure"
        },
        {
          "startTime": 69.1,
          "name": "lh:config:requireAudits",
          "duration": 43.31,
          "entryType": "measure"
        },
        {
          "startTime": 123.32,
          "name": "lh:init:connect",
          "duration": 0.17,
          "entryType": "measure"
        },
        {
          "startTime": 123.56,
          "name": "lh:gather:loadBlank",
          "duration": 36.82,
          "entryType": "measure"
        },
        {
          "startTime": 160.6,
          "name": "lh:gather:getVersion",
          "duration": 2.71,
          "entryType": "measure"
        },
        {
          "startTime": 163.44,
          "name": "lh:gather:getBenchmarkIndex",
          "duration": 502.43,
          "entryType": "measure"
        },
        {
          "startTime": 665.97,
          "name": "lh:gather:setupDriver",
          "duration": 25.25,
          "entryType": "measure"
        },
        {
          "startTime": 691.35,
          "name": "lh:gather:loadBlank",
          "duration": 15.35,
          "entryType": "measure"
        },
        {
          "startTime": 706.81,
          "name": "lh:gather:setupPassNetwork",
          "duration": 6.17,
          "entryType": "measure"
        },
        {
          "startTime": 713.11,
          "name": "lh:gather:beforePass",
          "duration": 0.11,
          "entryType": "measure"
        },
        {
          "startTime": 713.15,
          "name": "lh:gather:beforePass:Accessibility",
          "duration": 0.06,
          "entryType": "measure"
        },
        {
          "startTime": 713.27,
          "name": "lh:gather:beginRecording",
          "duration": 0.1,
          "entryType": "measure"
        },
        {
          "startTime": 713.49,
          "name": "lh:gather:loadPage-defaultPass",
          "duration": 2566.88,
          "entryType": "measure"
        },
        {
          "startTime": 3280.88,
          "name": "lh:gather:pass",
          "duration": 0.69,
          "entryType": "measure"
        },
        {
          "startTime": 3281.91,
          "name": "lh:gather:getDevtoolsLog",
          "duration": 12.76,
          "entryType": "measure"
        },
        {
          "startTime": 3300.76,
          "name": "lh:gather:afterPass",
          "duration": 661.82,
          "entryType": "measure"
        },
        {
          "startTime": 3330.04,
          "name": "lh:gather:afterPass:Accessibility",
          "duration": 632.48,
          "entryType": "measure"
        },
        {
          "startTime": 3981.58,
          "name": "lh:gather:disconnect",
          "duration": 4.08,
          "entryType": "measure"
        },
        {
          "startTime": 122.9,
          "name": "lh:runner:run",
          "duration": 3892.59,
          "entryType": "measure"
        },
        {
          "startTime": 3985.83,
          "name": "lh:runner:auditing",
          "duration": 29.22,
          "entryType": "measure"
        },
        {
          "startTime": 3988.08,
          "name": "lh:audit:accesskeys",
          "duration": 0.44,
          "entryType": "measure"
        },
        {
          "startTime": 3988.86,
          "name": "lh:audit:aria-allowed-attr",
          "duration": 0.38,
          "entryType": "measure"
        },
        {
          "startTime": 3989.62,
          "name": "lh:audit:aria-required-attr",
          "duration": 0.87,
          "entryType": "measure"
        },
        {
          "startTime": 3990.93,
          "name": "lh:audit:aria-required-children",
          "duration": 0.8,
          "entryType": "measure"
        },
        {
          "startTime": 3991.98,
          "name": "lh:audit:aria-required-parent",
          "duration": 0.54,
          "entryType": "measure"
        },
        {
          "startTime": 3992.69,
          "name": "lh:audit:aria-roles",
          "duration": 0.54,
          "entryType": "measure"
        },
        {
          "startTime": 3993.4,
          "name": "lh:audit:aria-valid-attr-value",
          "duration": 0.24,
          "entryType": "measure"
        },
        {
          "startTime": 3993.79,
          "name": "lh:audit:aria-valid-attr",
          "duration": 0.23,
          "entryType": "measure"
        },
        {
          "startTime": 3994.2,
          "name": "lh:audit:audio-caption",
          "duration": 0.24,
          "entryType": "measure"
        },
        {
          "startTime": 3994.59,
          "name": "lh:audit:button-name",
          "duration": 0.25,
          "entryType": "measure"
        },
        {
          "startTime": 3995.02,
          "name": "lh:audit:bypass",
          "duration": 0.52,
          "entryType": "measure"
        },
        {
          "startTime": 3995.71,
          "name": "lh:audit:color-contrast",
          "duration": 1.18,
          "entryType": "measure"
        },
        {
          "startTime": 3997.15,
          "name": "lh:audit:definition-list",
          "duration": 0.31,
          "entryType": "measure"
        },
        {
          "startTime": 3997.63,
          "name": "lh:audit:dlitem",
          "duration": 0.31,
          "entryType": "measure"
        },
        {
          "startTime": 3998.1,
          "name": "lh:audit:document-title",
          "duration": 0.54,
          "entryType": "measure"
        },
        {
          "startTime": 3998.8,
          "name": "lh:audit:duplicate-id",
          "duration": 0.55,
          "entryType": "measure"
        },
        {
          "startTime": 3999.52,
          "name": "lh:audit:frame-title",
          "duration": 0.54,
          "entryType": "measure"
        },
        {
          "startTime": 4000.21,
          "name": "lh:audit:html-has-lang",
          "duration": 0.54,
          "entryType": "measure"
        },
        {
          "startTime": 4000.92,
          "name": "lh:audit:html-lang-valid",
          "duration": 1.42,
          "entryType": "measure"
        },
        {
          "startTime": 4002.49,
          "name": "lh:audit:image-alt",
          "duration": 0.63,
          "entryType": "measure"
        },
        {
          "startTime": 4003.29,
          "name": "lh:audit:input-image-alt",
          "duration": 0.36,
          "entryType": "measure"
        },
        {
          "startTime": 4003.79,
          "name": "lh:audit:label",
          "duration": 0.38,
          "entryType": "measure"
        },
        {
          "startTime": 4004.37,
          "name": "lh:audit:layout-table",
          "duration": 0.37,
          "entryType": "measure"
        },
        {
          "startTime": 4004.89,
          "name": "lh:audit:link-name",
          "duration": 0.79,
          "entryType": "measure"
        },
        {
          "startTime": 4006.06,
          "name": "lh:audit:list",
          "duration": 0.74,
          "entryType": "measure"
        },
        {
          "startTime": 4007.16,
          "name": "lh:audit:listitem",
          "duration": 0.89,
          "entryType": "measure"
        },
        {
          "startTime": 4008.26,
          "name": "lh:audit:meta-refresh",
          "duration": 0.44,
          "entryType": "measure"
        },
        {
          "startTime": 4009.01,
          "name": "lh:audit:meta-viewport",
          "duration": 0.57,
          "entryType": "measure"
        },
        {
          "startTime": 4009.74,
          "name": "lh:audit:object-alt",
          "duration": 0.41,
          "entryType": "measure"
        },
        {
          "startTime": 4010.32,
          "name": "lh:audit:tabindex",
          "duration": 0.45,
          "entryType": "measure"
        },
        {
          "startTime": 4010.98,
          "name": "lh:audit:td-headers-attr",
          "duration": 0.46,
          "entryType": "measure"
        },
        {
          "startTime": 4011.64,
          "name": "lh:audit:th-has-data-cells",
          "duration": 0.49,
          "entryType": "measure"
        },
        {
          "startTime": 4012.27,
          "name": "lh:audit:valid-lang",
          "duration": 0.6,
          "entryType": "measure"
        },
        {
          "startTime": 4013.05,
          "name": "lh:audit:video-caption",
          "duration": 0.44,
          "entryType": "measure"
        },
        {
          "startTime": 4013.65,
          "name": "lh:audit:video-description",
          "duration": 0.46,
          "entryType": "measure"
        },
        {
          "startTime": 4014.14,
          "name": "lh:audit:custom-controls-labels",
          "duration": 0.12,
          "entryType": "measure"
        },
        {
          "startTime": 4014.28,
          "name": "lh:audit:custom-controls-roles",
          "duration": 0.07,
          "entryType": "measure"
        },
        {
          "startTime": 4014.37,
          "name": "lh:audit:focus-traps",
          "duration": 0.06,
          "entryType": "measure"
        },
        {
          "startTime": 4014.44,
          "name": "lh:audit:focusable-controls",
          "duration": 0.06,
          "entryType": "measure"
        },
        {
          "startTime": 4014.51,
          "name": "lh:audit:heading-levels",
          "duration": 0.06,
          "entryType": "measure"
        },
        {
          "startTime": 4014.59,
          "name": "lh:audit:interactive-element-affordance",
          "duration": 0.06,
          "entryType": "measure"
        },
        {
          "startTime": 4014.66,
          "name": "lh:audit:logical-tab-order",
          "duration": 0.06,
          "entryType": "measure"
        },
        {
          "startTime": 4014.74,
          "name": "lh:audit:managed-focus",
          "duration": 0.06,
          "entryType": "measure"
        },
        {
          "startTime": 4014.81,
          "name": "lh:audit:offscreen-content-hidden",
          "duration": 0.06,
          "entryType": "measure"
        },
        {
          "startTime": 4014.89,
          "name": "lh:audit:use-landmarks",
          "duration": 0.07,
          "entryType": "measure"
        },
        {
          "startTime": 4014.97,
          "name": "lh:audit:visual-order-follows-dom",
          "duration": 0.06,
          "entryType": "measure"
        },
        {
          "startTime": 4015.06,
          "name": "lh:runner:generate",
          "duration": 0.41,
          "entryType": "measure"
        }
      ],
      "total": 3892.59
    },
    "i18n": {
      "rendererFormattedStrings": {},
      "icuMessagePaths": {
        "lighthouse-core/audits/accessibility/accesskeys.js | title": [
          "audits.accesskeys.title"
        ],
        "lighthouse-core/audits/accessibility/accesskeys.js | description": [
          "audits.accesskeys.description"
        ],
        "lighthouse-core/audits/accessibility/aria-allowed-attr.js | title": [
          "audits[aria-allowed-attr].title"
        ],
        "lighthouse-core/audits/accessibility/aria-allowed-attr.js | description": [
          "audits[aria-allowed-attr].description"
        ],
        "lighthouse-core/audits/accessibility/aria-required-attr.js | title": [
          "audits[aria-required-attr].title"
        ],
        "lighthouse-core/audits/accessibility/aria-required-attr.js | description": [
          "audits[aria-required-attr].description"
        ],
        "lighthouse-core/audits/accessibility/aria-required-children.js | title": [
          "audits[aria-required-children].title"
        ],
        "lighthouse-core/audits/accessibility/aria-required-children.js | description": [
          "audits[aria-required-children].description"
        ],
        "lighthouse-core/audits/accessibility/aria-required-parent.js | title": [
          "audits[aria-required-parent].title"
        ],
        "lighthouse-core/audits/accessibility/aria-required-parent.js | description": [
          "audits[aria-required-parent].description"
        ],
        "lighthouse-core/audits/accessibility/aria-roles.js | title": [
          "audits[aria-roles].title"
        ],
        "lighthouse-core/audits/accessibility/aria-roles.js | description": [
          "audits[aria-roles].description"
        ],
        "lighthouse-core/audits/accessibility/aria-valid-attr-value.js | title": [
          "audits[aria-valid-attr-value].title"
        ],
        "lighthouse-core/audits/accessibility/aria-valid-attr-value.js | description": [
          "audits[aria-valid-attr-value].description"
        ],
        "lighthouse-core/audits/accessibility/aria-valid-attr.js | title": [
          "audits[aria-valid-attr].title"
        ],
        "lighthouse-core/audits/accessibility/aria-valid-attr.js | description": [
          "audits[aria-valid-attr].description"
        ],
        "lighthouse-core/audits/accessibility/audio-caption.js | title": [
          "audits[audio-caption].title"
        ],
        "lighthouse-core/audits/accessibility/audio-caption.js | description": [
          "audits[audio-caption].description"
        ],
        "lighthouse-core/audits/accessibility/button-name.js | title": [
          "audits[button-name].title"
        ],
        "lighthouse-core/audits/accessibility/button-name.js | description": [
          "audits[button-name].description"
        ],
        "lighthouse-core/audits/accessibility/bypass.js | title": [
          "audits.bypass.title"
        ],
        "lighthouse-core/audits/accessibility/bypass.js | description": [
          "audits.bypass.description"
        ],
        "lighthouse-core/audits/accessibility/color-contrast.js | failureTitle": [
          "audits[color-contrast].title"
        ],
        "lighthouse-core/audits/accessibility/color-contrast.js | description": [
          "audits[color-contrast].description"
        ],
        "lighthouse-core/audits/accessibility/axe-audit.js | failingElementsHeader": [
          "audits[color-contrast].details.headings[0].text",
          "audits[link-name].details.headings[0].text"
        ],
        "lighthouse-core/audits/accessibility/definition-list.js | title": [
          "audits[definition-list].title"
        ],
        "lighthouse-core/audits/accessibility/definition-list.js | description": [
          "audits[definition-list].description"
        ],
        "lighthouse-core/audits/accessibility/dlitem.js | title": [
          "audits.dlitem.title"
        ],
        "lighthouse-core/audits/accessibility/dlitem.js | description": [
          "audits.dlitem.description"
        ],
        "lighthouse-core/audits/accessibility/document-title.js | title": [
          "audits[document-title].title"
        ],
        "lighthouse-core/audits/accessibility/document-title.js | description": [
          "audits[document-title].description"
        ],
        "lighthouse-core/audits/accessibility/duplicate-id.js | title": [
          "audits[duplicate-id].title"
        ],
        "lighthouse-core/audits/accessibility/duplicate-id.js | description": [
          "audits[duplicate-id].description"
        ],
        "lighthouse-core/audits/accessibility/frame-title.js | title": [
          "audits[frame-title].title"
        ],
        "lighthouse-core/audits/accessibility/frame-title.js | description": [
          "audits[frame-title].description"
        ],
        "lighthouse-core/audits/accessibility/html-has-lang.js | title": [
          "audits[html-has-lang].title"
        ],
        "lighthouse-core/audits/accessibility/html-has-lang.js | description": [
          "audits[html-has-lang].description"
        ],
        "lighthouse-core/audits/accessibility/html-lang-valid.js | title": [
          "audits[html-lang-valid].title"
        ],
        "lighthouse-core/audits/accessibility/html-lang-valid.js | description": [
          "audits[html-lang-valid].description"
        ],
        "lighthouse-core/audits/accessibility/image-alt.js | title": [
          "audits[image-alt].title"
        ],
        "lighthouse-core/audits/accessibility/image-alt.js | description": [
          "audits[image-alt].description"
        ],
        "lighthouse-core/audits/accessibility/input-image-alt.js | title": [
          "audits[input-image-alt].title"
        ],
        "lighthouse-core/audits/accessibility/input-image-alt.js | description": [
          "audits[input-image-alt].description"
        ],
        "lighthouse-core/audits/accessibility/label.js | title": [
          "audits.label.title"
        ],
        "lighthouse-core/audits/accessibility/label.js | description": [
          "audits.label.description"
        ],
        "lighthouse-core/audits/accessibility/layout-table.js | title": [
          "audits[layout-table].title"
        ],
        "lighthouse-core/audits/accessibility/layout-table.js | description": [
          "audits[layout-table].description"
        ],
        "lighthouse-core/audits/accessibility/link-name.js | failureTitle": [
          "audits[link-name].title"
        ],
        "lighthouse-core/audits/accessibility/link-name.js | description": [
          "audits[link-name].description"
        ],
        "lighthouse-core/audits/accessibility/list.js | title": [
          "audits.list.title"
        ],
        "lighthouse-core/audits/accessibility/list.js | description": [
          "audits.list.description"
        ],
        "lighthouse-core/audits/accessibility/listitem.js | title": [
          "audits.listitem.title"
        ],
        "lighthouse-core/audits/accessibility/listitem.js | description": [
          "audits.listitem.description"
        ],
        "lighthouse-core/audits/accessibility/meta-refresh.js | title": [
          "audits[meta-refresh].title"
        ],
        "lighthouse-core/audits/accessibility/meta-refresh.js | description": [
          "audits[meta-refresh].description"
        ],
        "lighthouse-core/audits/accessibility/meta-viewport.js | title": [
          "audits[meta-viewport].title"
        ],
        "lighthouse-core/audits/accessibility/meta-viewport.js | description": [
          "audits[meta-viewport].description"
        ],
        "lighthouse-core/audits/accessibility/object-alt.js | title": [
          "audits[object-alt].title"
        ],
        "lighthouse-core/audits/accessibility/object-alt.js | description": [
          "audits[object-alt].description"
        ],
        "lighthouse-core/audits/accessibility/tabindex.js | title": [
          "audits.tabindex.title"
        ],
        "lighthouse-core/audits/accessibility/tabindex.js | description": [
          "audits.tabindex.description"
        ],
        "lighthouse-core/audits/accessibility/td-headers-attr.js | title": [
          "audits[td-headers-attr].title"
        ],
        "lighthouse-core/audits/accessibility/td-headers-attr.js | description": [
          "audits[td-headers-attr].description"
        ],
        "lighthouse-core/audits/accessibility/th-has-data-cells.js | title": [
          "audits[th-has-data-cells].title"
        ],
        "lighthouse-core/audits/accessibility/th-has-data-cells.js | description": [
          "audits[th-has-data-cells].description"
        ],
        "lighthouse-core/audits/accessibility/valid-lang.js | title": [
          "audits[valid-lang].title"
        ],
        "lighthouse-core/audits/accessibility/valid-lang.js | description": [
          "audits[valid-lang].description"
        ],
        "lighthouse-core/audits/accessibility/video-caption.js | title": [
          "audits[video-caption].title"
        ],
        "lighthouse-core/audits/accessibility/video-caption.js | description": [
          "audits[video-caption].description"
        ],
        "lighthouse-core/audits/accessibility/video-description.js | title": [
          "audits[video-description].title"
        ],
        "lighthouse-core/audits/accessibility/video-description.js | description": [
          "audits[video-description].description"
        ],
        "lighthouse-core/config/default-config.js | a11yCategoryTitle": [
          "categories.accessibility.title"
        ],
        "lighthouse-core/config/default-config.js | a11yCategoryDescription": [
          "categories.accessibility.description"
        ],
        "lighthouse-core/config/default-config.js | a11yCategoryManualDescription": [
          "categories.accessibility.manualDescription"
        ],
        "lighthouse-core/config/default-config.js | metricGroupTitle": [
          "categoryGroups.metrics.title"
        ],
        "lighthouse-core/config/default-config.js | loadOpportunitiesGroupTitle": [
          "categoryGroups[load-opportunities].title"
        ],
        "lighthouse-core/config/default-config.js | loadOpportunitiesGroupDescription": [
          "categoryGroups[load-opportunities].description"
        ],
        "lighthouse-core/config/default-config.js | budgetsGroupTitle": [
          "categoryGroups.budgets.title"
        ],
        "lighthouse-core/config/default-config.js | budgetsGroupDescription": [
          "categoryGroups.budgets.description"
        ],
        "lighthouse-core/config/default-config.js | diagnosticsGroupTitle": [
          "categoryGroups.diagnostics.title"
        ],
        "lighthouse-core/config/default-config.js | diagnosticsGroupDescription": [
          "categoryGroups.diagnostics.description"
        ],
        "lighthouse-core/config/default-config.js | pwaFastReliableGroupTitle": [
          "categoryGroups[pwa-fast-reliable].title"
        ],
        "lighthouse-core/config/default-config.js | pwaInstallableGroupTitle": [
          "categoryGroups[pwa-installable].title"
        ],
        "lighthouse-core/config/default-config.js | pwaOptimizedGroupTitle": [
          "categoryGroups[pwa-optimized].title"
        ],
        "lighthouse-core/config/default-config.js | a11yBestPracticesGroupTitle": [
          "categoryGroups[a11y-best-practices].title"
        ],
        "lighthouse-core/config/default-config.js | a11yBestPracticesGroupDescription": [
          "categoryGroups[a11y-best-practices].description"
        ],
        "lighthouse-core/config/default-config.js | a11yColorContrastGroupTitle": [
          "categoryGroups[a11y-color-contrast].title"
        ],
        "lighthouse-core/config/default-config.js | a11yColorContrastGroupDescription": [
          "categoryGroups[a11y-color-contrast].description"
        ],
        "lighthouse-core/config/default-config.js | a11yNamesLabelsGroupTitle": [
          "categoryGroups[a11y-names-labels].title"
        ],
        "lighthouse-core/config/default-config.js | a11yNamesLabelsGroupDescription": [
          "categoryGroups[a11y-names-labels].description"
        ],
        "lighthouse-core/config/default-config.js | a11yNavigationGroupTitle": [
          "categoryGroups[a11y-navigation].title"
        ],
        "lighthouse-core/config/default-config.js | a11yNavigationGroupDescription": [
          "categoryGroups[a11y-navigation].description"
        ],
        "lighthouse-core/config/default-config.js | a11yAriaGroupTitle": [
          "categoryGroups[a11y-aria].title"
        ],
        "lighthouse-core/config/default-config.js | a11yAriaGroupDescription": [
          "categoryGroups[a11y-aria].description"
        ],
        "lighthouse-core/config/default-config.js | a11yLanguageGroupTitle": [
          "categoryGroups[a11y-language].title"
        ],
        "lighthouse-core/config/default-config.js | a11yLanguageGroupDescription": [
          "categoryGroups[a11y-language].description"
        ],
        "lighthouse-core/config/default-config.js | a11yAudioVideoGroupTitle": [
          "categoryGroups[a11y-audio-video].title"
        ],
        "lighthouse-core/config/default-config.js | a11yAudioVideoGroupDescription": [
          "categoryGroups[a11y-audio-video].description"
        ],
        "lighthouse-core/config/default-config.js | a11yTablesListsVideoGroupTitle": [
          "categoryGroups[a11y-tables-lists].title"
        ],
        "lighthouse-core/config/default-config.js | a11yTablesListsVideoGroupDescription": [
          "categoryGroups[a11y-tables-lists].description"
        ],
        "lighthouse-core/config/default-config.js | seoMobileGroupTitle": [
          "categoryGroups[seo-mobile].title"
        ],
        "lighthouse-core/config/default-config.js | seoMobileGroupDescription": [
          "categoryGroups[seo-mobile].description"
        ],
        "lighthouse-core/config/default-config.js | seoContentGroupTitle": [
          "categoryGroups[seo-content].title"
        ],
        "lighthouse-core/config/default-config.js | seoContentGroupDescription": [
          "categoryGroups[seo-content].description"
        ],
        "lighthouse-core/config/default-config.js | seoCrawlingGroupTitle": [
          "categoryGroups[seo-crawl].title"
        ],
        "lighthouse-core/config/default-config.js | seoCrawlingGroupDescription": [
          "categoryGroups[seo-crawl].description"
        ],
        "node_modules/lighthouse-plugin-publisher-ads/messages/common-strings.js | GROUPS__METRICS": [
          "categoryGroups[lighthouse-plugin-publisher-ads-metrics].title"
        ],
        "node_modules/lighthouse-plugin-publisher-ads/messages/common-strings.js | GROUPS__ADS_PERFORMANCE": [
          "categoryGroups[lighthouse-plugin-publisher-ads-ads-performance].title"
        ],
        "node_modules/lighthouse-plugin-publisher-ads/messages/common-strings.js | GROUPS__ADS_BEST_PRACTICES": [
          "categoryGroups[lighthouse-plugin-publisher-ads-ads-best-practices].title"
        ]
      }
    },
    "stackPacks": []
  }